{
    "dev": {
        "awscloudformation": {
            "AuthRoleName": "amplify-combolearnfrontend-dev-180838-authRole",
            "UnauthRoleArn": "arn:aws:iam::472848567057:role/amplify-combolearnfrontend-dev-180838-unauthRole",
            "AuthRoleArn": "arn:aws:iam::472848567057:role/amplify-combolearnfrontend-dev-180838-authRole",
            "Region": "us-east-1",
            "DeploymentBucketName": "amplify-combolearnfrontend-dev-180838-deployment",
            "UnauthRoleName": "amplify-combolearnfrontend-dev-180838-unauthRole",
            "StackName": "amplify-combolearnfrontend-dev-180838",
            "StackId": "arn:aws:cloudformation:us-east-1:472848567057:stack/amplify-combolearnfrontend-dev-180838/519e8a30-8741-11ea-a7d7-12e346dd5d0c",
            "AmplifyAppId": "d15imhfbwa2k7y"
        },
        "categories": {
            "auth": {
                "combolearnfrontend0443c8af": {}
            }
        }
    },
    "dan": {
        "awscloudformation": {
            "AuthRoleName": "amplify-combolearnfrontend-dan-103919-authRole",
            "UnauthRoleArn": "arn:aws:iam::472848567057:role/amplify-combolearnfrontend-dan-103919-unauthRole",
            "AuthRoleArn": "arn:aws:iam::472848567057:role/amplify-combolearnfrontend-dan-103919-authRole",
            "Region": "us-east-1",
            "DeploymentBucketName": "amplify-combolearnfrontend-dan-103919-deployment",
            "UnauthRoleName": "amplify-combolearnfrontend-dan-103919-unauthRole",
            "StackName": "amplify-combolearnfrontend-dan-103919",
            "StackId": "arn:aws:cloudformation:us-east-1:472848567057:stack/amplify-combolearnfrontend-dan-103919/e19be890-8894-11ea-af02-0aa958b6917a",
            "AmplifyAppId": "d3v7l1dbg5c0ch"
        },
        "categories": {
            "auth": {
                "combolearnfrontend0443c8af": {}
            },
            "function": {
                "combolearnfrontend0443c8afPostConfirmation": {
                    "GROUP": "test"
                }
            }
        }
    },
    "clfrontend": {
        "awscloudformation": {
            "AuthRoleName": "amplify-combolearnfrontend-clfrontend-104933-authRole",
            "UnauthRoleArn": "arn:aws:iam::472848567057:role/amplify-combolearnfrontend-clfrontend-104933-unauthRole",
            "AuthRoleArn": "arn:aws:iam::472848567057:role/amplify-combolearnfrontend-clfrontend-104933-authRole",
            "Region": "us-east-1",
            "DeploymentBucketName": "amplify-combolearnfrontend-clfrontend-104933-deployment",
            "UnauthRoleName": "amplify-combolearnfrontend-clfrontend-104933-unauthRole",
            "StackName": "amplify-combolearnfrontend-clfrontend-104933",
            "StackId": "arn:aws:cloudformation:us-east-1:472848567057:stack/amplify-combolearnfrontend-clfrontend-104933/7a47dd90-895f-11ea-bffd-12dace8e8b83",
            "AmplifyAppId": "d3v7l1dbg5c0ch"
        },
        "categories": {
            "auth": {
                "combolearnfrontend0443c8af": {},
                "userPoolGroups": {}
            },
            "function": {
                "combolearnfrontend0443c8afPostConfirmation": {
                    "GROUP": "clUsers"
                }
            },
            "hosting": {
                "amplifyhosting": {
                    "appId": "d3v7l1dbg5c0ch",
                    "type": "cicd"
                }
            }
        }
    }
}